INFO     utils.log_utils:BaseApi.py:80 发起的请求地址为===========>http://api.boweiedu.test/backend/user/add-user
INFO     utils.log_utils:BaseApi.py:82 接口的响应信息为<==========={"code":0,"msg":"success","data":{},"timestamp":1723611215,"req_id":"8cda81a5447feb17a6e1c5752fb1492d"}
INFO     utils.log_utils:BaseApi.py:80 发起的请求地址为===========>http://api.boweiedu.test/backend/user/list
INFO     utils.log_utils:BaseApi.py:82 接口的响应信息为<==========={"code":0,"msg":"success","data":{"list":[{"id":111,"uuid":"22b4d59fafb414f9322ef9badf349aec","username":"15830355555","status":1,"status_str":"正常","phone":"15830355655","stu_no":"022","login_at":"2024-05-20 16:54:43","login_ip":"192.168.0.173","identities":[1,5],"identitues_name":["管理员","老师"],"created_at":"2024-02-20 10:04:10","real_name":"李四修改"},{"id":118,"uuid":"8d66c5264567e4907e8e37c2d3860599","username":"wangyisi","status":1,"status_str":"正常","phone":"13266666666","stu_no":"","login_at":"2024-05-15 14:50:53","login_ip":"192.168.0.137","identities":[1],"identitues_name":["管理员"],"created_at":"2024-02-22 17:40:11","real_name":"注册人员"},{"id":109,"uuid":"67c17a80402cbdf8dc15ba5eec8cb8e8","username":"beijing123","status":1,"status_str":"正常","phone":"15333130511","stu_no":"","login_at":"2024-05-17 17:56:40","login_ip":"192.168.0.147","identities":[1,5],"identitues_name":["管理员","老师"],"created_at":"2024-02-20 10:00:40","real_name":"北京"},{"id":116,"uuid":"9aa3fe5c1554a223bdd2a7a376704ff3","username":"13410510045","status":1,"status_str":"正常","phone":"13410510045","stu_no":"","login_at":"2024-08-08 13:05:43","login_ip":"192.168.0.173","identities":[1,5],"identitues_name":["管理员","老师"],"created_at":"2024-02-20 11:09:45","real_name":"Sam"},{"id":128,"uuid":"b101653d0371eb9206445dc5dc6aa467","username":"changlaoshiL","status":1,"status_str":"正常","phone":"15830344885","stu_no":"","login_at":"2024-08-08 16:25:05","login_ip":"192.168.0.147","identities":[1,5],"identitues_name":["管理员","老师"],"created_at":"2024-03-28 09:47:40","real_name":"常老师"},{"id":135,"uuid":"61cdaa3e7960480f99df634c6ace83b0","username":"15830344889","status":1,"status_str":"正常","phone":"15830344889","stu_no":"","login_at":"2024-08-14 12:52:09","login_ip":"","identities":[1],"identitues_name":["管理员"],"created_at":"2024-05-06 18:27:37","real_name":"Linda"},{"id":154,"uuid":"8888d469af65431f82def7c4d6e3085c","username":"15898985544","status":1,"status_str":"正常","phone":"15898985544","stu_no":"9","login_at":"2024-05-15 13:51:18","login_ip":"","identities":[1,5],"identitues_name":["管理员","老师"],"created_at":"2024-05-09 10:04:32","real_name":"张城"},{"id":174,"uuid":"a6340b6597b645a18c2f88a28bf98195","username":"19129412800","status":1,"status_str":"正常","phone":"19129412800","stu_no":"","login_at":"","login_ip":"","identities":[5],"identitues_name":["老师"],"created_at":"2024-05-12 10:39:41","real_name":"张同学jsjs"},{"id":266,"uuid":"624b8e26031f4e968273444ef9fa5816","username":"15927379162","status":1,"status_str":"正常","phone":"15927379162","stu_no":"","login_at":"2024-05-20 11:30:14","login_ip":"","identities":[7],"identitues_name":["学生"],"created_at":"2024-05-15 14:41:46","real_name":"tjstu123"},{"id":273,"uuid":"2923877c0f374a3eb941a6d8b1128af2","username":"13111213258","status":1,"status_str":"正常","phone":"13111213258","stu_no":"","login_at":"","login_ip":"","identities":[7],"identitues_name":["学生"],"created_at":"2024-05-15 18:18:02","real_name":"学生职业大学"}],"pagination":{"size":10,"total":11,"pages":2,"page":1}},"timestamp":1723611215,"req_id":"308f27a9447feb17a7e1c575d0b7398c"}
INFO     utils.log_utils:jsonpath_utils.py:11 通过jsonpath获取到的数据为[2]
INFO     utils.log_utils:jsonpath_utils.py:11 通过jsonpath获取到的数据为[10]
INFO     utils.log_utils:BaseApi.py:80 发起的请求地址为===========>http://api.boweiedu.test/backend/user/list
INFO     utils.log_utils:BaseApi.py:82 接口的响应信息为<==========={"code":0,"msg":"success","data":{"list":[{"id":882,"uuid":"a39ea46f53af4e7cb5614301311ab2fa","username":"15954854215","status":1,"status_str":"正常","phone":"15954854215","stu_no":"","login_at":"","login_ip":"","identities":[7],"identitues_name":["学生"],"created_at":"2024-08-14 12:53:35","real_name":"张飞"}],"pagination":{"size":10,"total":11,"pages":2,"page":2}},"timestamp":1723611215,"req_id":"2c1a55ac447feb17a8e1c57539285819"}
INFO     utils.log_utils:jsonpath_utils.py:11 通过jsonpath获取到的数据为['a39ea46f53af4e7cb5614301311ab2fa']
INFO     utils.log_utils:BaseApi.py:80 发起的请求地址为===========>http://api.boweiedu.test/backend/user/add-user
INFO     utils.log_utils:BaseApi.py:82 接口的响应信息为<==========={"code":0,"msg":"success","data":{},"timestamp":1723611215,"req_id":"145af1ae447feb17a9e1c57590b224de"}
INFO     utils.log_utils:BaseApi.py:80 发起的请求地址为===========>http://api.boweiedu.test/backend/user/list
INFO     utils.log_utils:BaseApi.py:82 接口的响应信息为<==========={"code":0,"msg":"success","data":{"list":[{"id":111,"uuid":"22b4d59fafb414f9322ef9badf349aec","username":"15830355555","status":1,"status_str":"正常","phone":"15830355655","stu_no":"022","login_at":"2024-05-20 16:54:43","login_ip":"192.168.0.173","identities":[1,5],"identitues_name":["管理员","老师"],"created_at":"2024-02-20 10:04:10","real_name":"李四修改"},{"id":118,"uuid":"8d66c5264567e4907e8e37c2d3860599","username":"wangyisi","status":1,"status_str":"正常","phone":"13266666666","stu_no":"","login_at":"2024-05-15 14:50:53","login_ip":"192.168.0.137","identities":[1],"identitues_name":["管理员"],"created_at":"2024-02-22 17:40:11","real_name":"注册人员"},{"id":109,"uuid":"67c17a80402cbdf8dc15ba5eec8cb8e8","username":"beijing123","status":1,"status_str":"正常","phone":"15333130511","stu_no":"","login_at":"2024-05-17 17:56:40","login_ip":"192.168.0.147","identities":[1,5],"identitues_name":["管理员","老师"],"created_at":"2024-02-20 10:00:40","real_name":"北京"},{"id":116,"uuid":"9aa3fe5c1554a223bdd2a7a376704ff3","username":"13410510045","status":1,"status_str":"正常","phone":"13410510045","stu_no":"","login_at":"2024-08-08 13:05:43","login_ip":"192.168.0.173","identities":[1,5],"identitues_name":["管理员","老师"],"created_at":"2024-02-20 11:09:45","real_name":"Sam"},{"id":128,"uuid":"b101653d0371eb9206445dc5dc6aa467","username":"changlaoshiL","status":1,"status_str":"正常","phone":"15830344885","stu_no":"","login_at":"2024-08-08 16:25:05","login_ip":"192.168.0.147","identities":[1,5],"identitues_name":["管理员","老师"],"created_at":"2024-03-28 09:47:40","real_name":"常老师"},{"id":135,"uuid":"61cdaa3e7960480f99df634c6ace83b0","username":"15830344889","status":1,"status_str":"正常","phone":"15830344889","stu_no":"","login_at":"2024-08-14 12:52:09","login_ip":"","identities":[1],"identitues_name":["管理员"],"created_at":"2024-05-06 18:27:37","real_name":"Linda"},{"id":154,"uuid":"8888d469af65431f82def7c4d6e3085c","username":"15898985544","status":1,"status_str":"正常","phone":"15898985544","stu_no":"9","login_at":"2024-05-15 13:51:18","login_ip":"","identities":[1,5],"identitues_name":["管理员","老师"],"created_at":"2024-05-09 10:04:32","real_name":"张城"},{"id":174,"uuid":"a6340b6597b645a18c2f88a28bf98195","username":"19129412800","status":1,"status_str":"正常","phone":"19129412800","stu_no":"","login_at":"","login_ip":"","identities":[5],"identitues_name":["老师"],"created_at":"2024-05-12 10:39:41","real_name":"张同学jsjs"},{"id":266,"uuid":"624b8e26031f4e968273444ef9fa5816","username":"15927379162","status":1,"status_str":"正常","phone":"15927379162","stu_no":"","login_at":"2024-05-20 11:30:14","login_ip":"","identities":[7],"identitues_name":["学生"],"created_at":"2024-05-15 14:41:46","real_name":"tjstu123"},{"id":273,"uuid":"2923877c0f374a3eb941a6d8b1128af2","username":"13111213258","status":1,"status_str":"正常","phone":"13111213258","stu_no":"","login_at":"","login_ip":"","identities":[7],"identitues_name":["学生"],"created_at":"2024-05-15 18:18:02","real_name":"学生职业大学"}],"pagination":{"size":10,"total":12,"pages":2,"page":1}},"timestamp":1723611215,"req_id":"315968b2447feb17aae1c57581e5f844"}
INFO     utils.log_utils:jsonpath_utils.py:11 通过jsonpath获取到的数据为[2]
INFO     utils.log_utils:jsonpath_utils.py:11 通过jsonpath获取到的数据为[10]
INFO     utils.log_utils:BaseApi.py:80 发起的请求地址为===========>http://api.boweiedu.test/backend/user/list
INFO     utils.log_utils:BaseApi.py:82 接口的响应信息为<==========={"code":0,"msg":"success","data":{"list":[{"id":882,"uuid":"a39ea46f53af4e7cb5614301311ab2fa","username":"15954854215","status":1,"status_str":"正常","phone":"15954854215","stu_no":"","login_at":"","login_ip":"","identities":[7],"identitues_name":["学生"],"created_at":"2024-08-14 12:53:35","real_name":"张飞"},{"id":883,"uuid":"ed9f8d70a8a6430da54cfe43fd257379","username":"15954854255","status":1,"status_str":"正常","phone":"15954854255","stu_no":"","login_at":"","login_ip":"","identities":[7],"identitues_name":["学生"],"created_at":"2024-08-14 12:53:35","real_name":"李飞"}],"pagination":{"size":10,"total":12,"pages":2,"page":2}},"timestamp":1723611215,"req_id":"5609a0b4447feb17abe1c575a76f19e1"}
INFO     utils.log_utils:jsonpath_utils.py:11 通过jsonpath获取到的数据为['ed9f8d70a8a6430da54cfe43fd257379']
INFO     utils.log_utils:BaseApi.py:80 发起的请求地址为===========>http://api.boweiedu.test/backend/grade/add
INFO     utils.log_utils:BaseApi.py:82 接口的响应信息为<==========={"code":0,"msg":"success","data":{"uuid":"07ccfb6c91c5003d664f61c244cf84bf"},"timestamp":1723611215,"req_id":"e6f423ba447feb17ade1c5756122e221"}
INFO     utils.log_utils:jsonpath_utils.py:11 通过jsonpath获取到的数据为['07ccfb6c91c5003d664f61c244cf84bf']
INFO     utils.log_utils:BaseApi.py:80 发起的请求地址为===========>http://api.boweiedu.test/backend/grade/user-add
INFO     utils.log_utils:BaseApi.py:82 接口的响应信息为<==========={"code":0,"msg":"success","data":[],"timestamp":1723611215,"req_id":"e0bd62bd447feb17aee1c575de9dfb40"}
INFO     utils.log_utils:BaseApi.py:80 发起的请求地址为===========>http://api.boweiedu.test/backend/grade/group/template-insert
INFO     utils.log_utils:BaseApi.py:82 接口的响应信息为<==========={"code":0,"msg":"success","data":{"uuid":"815ebe93105149898a23f36d53615b73"},"timestamp":1723611215,"req_id":"a412b8bf447feb17afe1c57599559073"}
INFO     utils.log_utils:jsonpath_utils.py:11 通过jsonpath获取到的数据为['815ebe93105149898a23f36d53615b73']
INFO     utils.log_utils:BaseApi.py:80 发起的请求地址为===========>http://api.boweiedu.test/backend/grade/group/save
INFO     utils.log_utils:BaseApi.py:82 接口的响应信息为<==========={"code":0,"msg":"success","data":[],"timestamp":1723611215,"req_id":"27f714c2447feb17b0e1c5757f0dd609"}
INFO     utils.log_utils:BaseApi.py:80 发起的请求地址为===========>http://api.boweiedu.test/backend/grade/group/save
INFO     utils.log_utils:BaseApi.py:82 接口的响应信息为<==========={"code":0,"msg":"success","data":[],"timestamp":1723611215,"req_id":"7f07b3c4447feb17b2e1c5751e5bedfc"}
INFO     utils.log_utils:BaseApi.py:80 发起的请求地址为===========>http://api.boweiedu.test/backend/grade/group/templates
INFO     utils.log_utils:BaseApi.py:82 接口的响应信息为<==========={"code":0,"msg":"success","data":{"list":[{"template_id":"236","template_name":"班级下新增小组模板一","uuid":"815ebe93105149898a23f36d53615b73","group_info":[{"group_name":"小组一","group_uuid":"c765e847ee53704b78f3eba5fafc67ea"},{"group_name":"小组二","group_uuid":"e94e094bc3661788757bb9ff45b29daf"}]}]},"timestamp":1723611215,"req_id":"18d34cc7447feb17b4e1c575c50345cd"}
INFO     utils.log_utils:jsonpath_utils.py:11 通过jsonpath获取到的数据为['c765e847ee53704b78f3eba5fafc67ea']
INFO     utils.log_utils:BaseApi.py:80 发起的请求地址为===========>http://api.boweiedu.test/backend/grade/group/detail
INFO     utils.log_utils:BaseApi.py:82 接口的响应信息为<==========={"code":0,"msg":"success","data":{"uuid":"815ebe93105149898a23f36d53615b73","template_name":"班级下新增小组模板一","classroom_id":0,"classroom_name":"","is_operate_classroom":0,"id":"406","grade_name":"广州线下班级","group_info":[{"operating_name":"","group_name":"小组一","group_uuid":"c765e847ee53704b78f3eba5fafc67ea","id":"426","user_info":[{"user_id":"882","user_uuid":"a39ea46f53af4e7cb5614301311ab2fa","nick_name":"张飞","avatar":"","real_name":"张飞","desc":""}]},{"operating_name":"","group_name":"小组二","group_uuid":"e94e094bc3661788757bb9ff45b29daf","id":"427","user_info":[{"user_id":"883","user_uuid":"ed9f8d70a8a6430da54cfe43fd257379","nick_name":"李飞","avatar":"","real_name":"李飞","desc":""}]}]},"timestamp":1723611215,"req_id":"b09bd3c9447feb17b6e1c5755f0bcd8f"}
INFO     utils.log_utils:jsonpath_utils.py:11 通过jsonpath获取到的数据为['883']
INFO     utils.log_utils:jsonpath_utils.py:11 通过jsonpath获取到的数据为['小组一']
INFO     utils.log_utils:BaseApi.py:80 发起的请求地址为===========>http://api.boweiedu.test/backend/grade/group/templates-user-save
INFO     utils.log_utils:BaseApi.py:82 接口的响应信息为<==========={"code":0,"msg":"success","data":[],"timestamp":1723611215,"req_id":"c74449d1447feb17b8e1c5752b31022f"}
INFO     utils.log_utils:BaseApi.py:80 发起的请求地址为===========>http://api.boweiedu.test/backend/v2/user/del
INFO     utils.log_utils:BaseApi.py:82 接口的响应信息为<==========={"code":0,"msg":"success","data":{},"timestamp":1723611216,"req_id":"75aba2d3447feb17bae1c575c7ed9f57"}
INFO     utils.log_utils:BaseApi.py:80 发起的请求地址为===========>http://api.boweiedu.test/backend/v2/user/del
INFO     utils.log_utils:BaseApi.py:82 接口的响应信息为<==========={"code":0,"msg":"success","data":{},"timestamp":1723611216,"req_id":"7e48c1d6447feb17bbe1c575919092b2"}
INFO     utils.log_utils:BaseApi.py:80 发起的请求地址为===========>http://api.boweiedu.test/backend/grade/delete
INFO     utils.log_utils:BaseApi.py:82 接口的响应信息为<==========={"code":0,"msg":"success","data":[],"timestamp":1723611216,"req_id":"732d91da447feb17bce1c575990f078c"}