INFO     utils.log_utils:BaseApi.py:80 发起的请求地址为===========>https://papi.boweiedu.com//backend/user/list
INFO     utils.log_utils:BaseApi.py:82 接口的响应信息为<==========={"code":0,"msg":"success","data":{"list":[{"id":426,"uuid":"ba02655039dfe9e3b60262d9c8bbe0da","username":"19129412802","status":1,"status_str":"正常","phone":"19129412899","stu_no":"","login_at":"2024-06-07 16:18:00","login_ip":"","identities":[1],"identitues_name":["管理员"],"created_at":"2024-03-08 11:28:29","real_name":"不知道"},{"id":194,"uuid":"8b88f10270ab0ffbf92715b501421b33","username":"13590209323","status":1,"status_str":"正常","phone":"13590209323","stu_no":"","login_at":"2024-05-23 18:34:22","login_ip":"","identities":[1,5],"identitues_name":["管理员","老师"],"created_at":"2024-01-24 15:22:34","real_name":"刘梦丹"},{"id":430,"uuid":"523670696c1736a76478b1a15c2d7fe9","username":"17688878884","status":1,"status_str":"正常","phone":"17688878884","stu_no":"","login_at":"","login_ip":"","identities":[5],"identitues_name":["老师"],"created_at":"2024-03-12 18:09:59","real_name":"111"},{"id":431,"uuid":"c774de4d5de15db99320af3143f6d4cd","username":"16687027251","status":1,"status_str":"正常","phone":"16687027251","stu_no":"","login_at":"","login_ip":"","identities":[7],"identitues_name":["学生"],"created_at":"2024-03-12 18:11:35","real_name":"2222"},{"id":454,"uuid":"ba3b89f867588ea1147699ea692f7836","username":"15989854433","status":1,"status_str":"正常","phone":"15989854433","stu_no":"","login_at":"2024-03-18 20:10:37","login_ip":"223.104.71.82","identities":[7],"identitues_name":["学生"],"created_at":"2024-03-18 20:09:59","real_name":""},{"id":458,"uuid":"51f3d6d70389fb681c57bb7868115702","username":"13000000043","status":1,"status_str":"正常","phone":"13000000043","stu_no":"","login_at":"","login_ip":"","identities":[5],"identitues_name":["老师"],"created_at":"2024-03-21 14:21:27","real_name":"昂反对"},{"id":1,"uuid":"a4b005d066eaa0a56f3dc5d53f799945","username":"vpntest","status":1,"status_str":"正常","phone":"13421328343","stu_no":"","login_at":"2024-08-05 14:24:34","login_ip":"113.87.226.207","identities":[1,5],"identitues_name":["管理员","老师"],"created_at":"2023-09-25 06:40:40","real_name":"郑锦杰"},{"id":472,"uuid":"88e26957c4f24dba7ea4a711b1f5cd06","username":"18620382922","status":1,"status_str":"正常","phone":"18620382922","stu_no":"","login_at":"2024-08-01 17:37:35","login_ip":"113.118.251.235","identities":[8],"identitues_name":["督导"],"created_at":"2024-03-29 16:48:58","real_name":"布丁"},{"id":474,"uuid":"4ce162de11222d46c9f353c238470d8c","username":"15915592379","status":2,"status_str":"禁用","phone":"15915592379","stu_no":"","login_at":"2024-03-30 09:54:11","login_ip":"223.104.65.77","identities":[7],"identitues_name":["学生"],"created_at":"2024-03-30 09:54:11","real_name":""},{"id":531,"uuid":"2a8057191dd84ebfa3a5107891251e7c","username":"13211238136","status":1,"status_str":"正常","phone":"13211238136","stu_no":"","login_at":"2024-08-02 11:50:29","login_ip":"","identities":[1],"identitues_name":["管理员"],"created_at":"2024-05-22 09:35:09","real_name":"王奕思"}],"pagination":{"size":10,"total":24,"pages":3,"page":2}},"timestamp":1722995237,"req_id":"f530730f0a4fe917643ef21a41d0b39d"}