INFO     utils.log_utils:BaseApi.py:80 发起的请求地址为===========>http://api.boweiedu.test/backend/user/add-user
INFO     utils.log_utils:BaseApi.py:82 接口的响应信息为<==========={"code":0,"msg":"success","data":{},"timestamp":1723097816,"req_id":"ee3998ac55ace9170aca492373cdfdfc"}
INFO     utils.log_utils:BaseApi.py:80 发起的请求地址为===========>http://api.boweiedu.test/backend/user/list
INFO     utils.log_utils:BaseApi.py:82 接口的响应信息为<==========={"code":0,"msg":"success","data":{"list":[{"id":111,"uuid":"22b4d59fafb414f9322ef9badf349aec","username":"15830355555","status":1,"status_str":"正常","phone":"15830355655","stu_no":"022","login_at":"2024-05-20 16:54:43","login_ip":"192.168.0.173","identities":[1006],"identitues_name":["高一年级主任"],"created_at":"2024-02-20 10:04:10","real_name":"李四修改"},{"id":118,"uuid":"8d66c5264567e4907e8e37c2d3860599","username":"wangyisi","status":1,"status_str":"正常","phone":"13266666666","stu_no":"","login_at":"2024-05-15 14:50:53","login_ip":"192.168.0.137","identities":[1],"identitues_name":["管理员"],"created_at":"2024-02-22 17:40:11","real_name":"注册人员"},{"id":109,"uuid":"67c17a80402cbdf8dc15ba5eec8cb8e8","username":"beijing123","status":1,"status_str":"正常","phone":"15333130511","stu_no":"","login_at":"2024-05-17 17:56:40","login_ip":"192.168.0.147","identities":[1,5],"identitues_name":["管理员","老师"],"created_at":"2024-02-20 10:00:40","real_name":"北京"},{"id":116,"uuid":"9aa3fe5c1554a223bdd2a7a376704ff3","username":"13410510045","status":1,"status_str":"正常","phone":"13410510045","stu_no":"","login_at":"2024-08-08 13:05:43","login_ip":"192.168.0.173","identities":[1,5],"identitues_name":["管理员","老师"],"created_at":"2024-02-20 11:09:45","real_name":"Sam"},{"id":128,"uuid":"b101653d0371eb9206445dc5dc6aa467","username":"15830344885","status":1,"status_str":"正常","phone":"15830344885","stu_no":"","login_at":"2024-07-31 15:03:13","login_ip":"192.168.0.147","identities":[1,5],"identitues_name":["管理员","老师"],"created_at":"2024-03-28 09:47:40","real_name":"常老师"},{"id":135,"uuid":"61cdaa3e7960480f99df634c6ace83b0","username":"15830344889","status":1,"status_str":"正常","phone":"15830344889","stu_no":"","login_at":"2024-08-08 14:16:56","login_ip":"","identities":[1],"identitues_name":["管理员"],"created_at":"2024-05-06 18:27:37","real_name":"Linda"},{"id":154,"uuid":"8888d469af65431f82def7c4d6e3085c","username":"15898985544","status":1,"status_str":"正常","phone":"15898985544","stu_no":"9","login_at":"2024-05-15 13:51:18","login_ip":"","identities":[1,5],"identitues_name":["管理员","老师"],"created_at":"2024-05-09 10:04:32","real_name":"张城"},{"id":174,"uuid":"a6340b6597b645a18c2f88a28bf98195","username":"19129412800","status":1,"status_str":"正常","phone":"19129412800","stu_no":"","login_at":"","login_ip":"","identities":[5],"identitues_name":["老师"],"created_at":"2024-05-12 10:39:41","real_name":"张同学jsjs"},{"id":266,"uuid":"624b8e26031f4e968273444ef9fa5816","username":"15927379162","status":1,"status_str":"正常","phone":"15927379162","stu_no":"","login_at":"2024-05-20 11:30:14","login_ip":"","identities":[7],"identitues_name":["学生"],"created_at":"2024-05-15 14:41:46","real_name":"tjstu123"},{"id":273,"uuid":"2923877c0f374a3eb941a6d8b1128af2","username":"13111213258","status":1,"status_str":"正常","phone":"13111213258","stu_no":"","login_at":"","login_ip":"","identities":[7],"identitues_name":["学生"],"created_at":"2024-05-15 18:18:02","real_name":"学生职业大学"}],"pagination":{"size":10,"total":14,"pages":2,"page":1}},"timestamp":1723097816,"req_id":"f2755baf55ace9170bca4923be67e0bf"}
INFO     utils.log_utils:jsonpath_utils.py:11 通过jsonpath获取到的数据为[2]
INFO     utils.log_utils:jsonpath_utils.py:11 通过jsonpath获取到的数据为[10]
INFO     utils.log_utils:BaseApi.py:80 发起的请求地址为===========>http://api.boweiedu.test/backend/user/list
INFO     utils.log_utils:BaseApi.py:82 接口的响应信息为<==========={"code":0,"msg":"success","data":{"list":[{"id":317,"uuid":"585282a511f245b7b325ba693ab987df","username":"13813813838","status":1,"status_str":"正常","phone":"13813813838","stu_no":"","login_at":"2024-05-22 18:21:17","login_ip":"","identities":[1],"identitues_name":["管理员"],"created_at":"2024-05-17 17:56:54","real_name":"James"},{"id":328,"uuid":"3459425ed6c5443f81a1c9933f367356","username":"15965412546","status":1,"status_str":"正常","phone":"15965412546","stu_no":"","login_at":"","login_ip":"","identities":[7],"identitues_name":["学生"],"created_at":"2024-08-07 13:41:49","real_name":"1121"},{"id":329,"uuid":"e290bdb99a9c4cb6930ea9db54500bb6","username":"15965842512","status":1,"status_str":"正常","phone":"15965842512","stu_no":"","login_at":"","login_ip":"","identities":[7],"identitues_name":["学生"],"created_at":"2024-08-07 13:44:35","real_name":"pok9"},{"id":391,"uuid":"73ce4b3694f343bcbbd17e0cc720fbfa","username":"15954854216","status":1,"status_str":"正常","phone":"15954854216","stu_no":"","login_at":"","login_ip":"","identities":[7],"identitues_name":["学生"],"created_at":"2024-08-08 14:16:56","real_name":"刘子"}],"pagination":{"size":10,"total":14,"pages":2,"page":2}},"timestamp":1723097816,"req_id":"9d8feeb255ace9170cca492321bd5d82"}
INFO     utils.log_utils:jsonpath_utils.py:11 通过jsonpath获取到的数据为['73ce4b3694f343bcbbd17e0cc720fbfa']
INFO     utils.log_utils:BaseApi.py:80 发起的请求地址为===========>http://api.boweiedu.test/backend/user/disable
INFO     utils.log_utils:BaseApi.py:82 接口的响应信息为<==========={"code":0,"msg":"success","data":[],"timestamp":1723097816,"req_id":"5459b6b555ace9170dca49233e3fa859"}