INFO     utils.log_utils:BaseApi.py:80 发起的请求地址为===========>http://api.boweiedu.test/backend/v2/live/list
INFO     utils.log_utils:BaseApi.py:82 接口的响应信息为<==========={"code":0,"msg":"success","data":{"pagination":{"size":10,"total":25,"pages":3,"page":1},"list":[{"uuid":"da60c228c8944e1186387bbd82f97afe","introduce":"","title":"深圳广厚","status":1,"classroom_name":"ITC015G1","venue_identifier":0,"start_time":1724068440,"end_time":1724075640,"cover":"","views":0,"playback_mode":0,"password":"","need_password":0,"sign_up_status":0,"is_collect":0,"created_at":"2024-08-19 19:49:26","publish":0,"speaker":{"uuid":"22b4d59fafb414f9322ef9badf349aec","nickname":"李四修改"},"classrooms":[]},{"uuid":"b24a024da2f9417f8238687c589f4fef","introduce":"","title":"热放入反反复复","status":2,"classroom_name":"ITC015G1","venue_identifier":0,"start_time":1723803180,"end_time":1723979585,"cover":"","views":0,"playback_mode":0,"password":"","need_password":0,"sign_up_status":0,"is_collect":0,"created_at":"2024-08-16 16:09:00","publish":0,"speaker":{"uuid":"22b4d59fafb414f9322ef9badf349aec","nickname":"李四修改"},"classrooms":[]},{"uuid":"168bbb39cac249c093f6dc19d54afdba","introduce":"","title":"视频直播测试","status":2,"classroom_name":"","venue_identifier":0,"start_time":1722936600,"end_time":1722937077,"cover":"","views":8,"playback_mode":1,"password":"","need_password":0,"sign_up_status":0,"is_collect":0,"created_at":"2024-08-06 17:29:16","publish":1,"speaker":{"uuid":"9aa3fe5c1554a223bdd2a7a376704ff3","nickname":"常同学"},"classrooms":[]},{"uuid":"de6b25021aa84d95be33453995635000","introduce":"","title":"视频直播","status":2,"classroom_name":"","venue_identifier":0,"start_time":1722924480,"end_time":1722931925,"cover":"","views":10,"playback_mode":1,"password":"","need_password":0,"sign_up_status":0,"is_collect":0,"created_at":"2024-08-06 14:07:42","publish":0,"speaker":{"uuid":"b101653d0371eb9206445dc5dc6aa467","nickname":"常老师"},"classrooms":[]},{"uuid":"60ed85a80ac74e88a045b4cf42f4a79d","introduce":"","title":"测试","status":2,"classroom_name":"ITC015G1","venue_identifier":0,"start_time":1721638200,"end_time":1721645405,"cover":"","views":0,"playback_mode":0,"password":"","need_password":0,"sign_up_status":0,"is_collect":0,"created_at":"2024-07-22 16:45:59","publish":0,"speaker":{"uuid":"9aa3fe5c1554a223bdd2a7a376704ff3","nickname":"常同学"},"classrooms":[]},{"uuid":"86897bedfe2d462faf01edb49793fb84","introduce":"","title":"视频直播","status":2,"classroom_name":"","venue_identifier":0,"start_time":1721352360,"end_time":1721359685,"cover":"http://static.boweiedu.test/resource/static/8d07d55f514957ccbe45263c761c43f8/private/2024/07/d2t4gjf2371nse73hx.png","views":10,"playback_mode":1,"password":"","need_password":0,"sign_up_status":0,"is_collect":0,"created_at":"2024-07-19 09:24:18","publish":0,"speaker":{"uuid":"b101653d0371eb9206445dc5dc6aa467","nickname":"常老师"},"classrooms":[]},{"uuid":"a69e538b7788c9d4d4992f31603692c9","introduce":"","title":"111","status":2,"classroom_name":"","venue_identifier":0,"start_time":1715929740,"end_time":1715937120,"cover":"","views":9,"playback_mode":1,"password":"","need_password":0,"sign_up_status":0,"is_collect":0,"created_at":"2024-05-17 15:08:04","publish":0,"speaker":{"uuid":"","nickname":"博为用户"},"classrooms":[]},{"uuid":"8026ce36b453790d4cd26dcc58ae80ea","introduce":"","title":"视频直播","status":2,"classroom_name":"","venue_identifier":0,"start_time":1715753340,"end_time":1715760720,"cover":"","views":13,"playback_mode":1,"password":"","need_password":0,"sign_up_status":0,"is_collect":0,"created_at":"2024-05-15 14:08:56","publish":1,"speaker":{"uuid":"","nickname":"博为用户"},"classrooms":[]},{"uuid":"f388685b862d73fa3feec655bc1f5ac9","introduce":"","title":"视频直播","status":2,"classroom_name":"","venue_identifier":0,"start_time":1715752620,"end_time":1715760060,"cover":"","views":19,"playback_mode":1,"password":"","need_password":0,"sign_up_status":0,"is_collect":0,"created_at":"2024-05-15 13:56:29","publish":1,"speaker":{"uuid":"","nickname":"博为用户"},"classrooms":[]},{"uuid":"2daa461749ca90742991fffc45fca1db","introduce":"","title":"设备开启直播","status":2,"classroom_name":"ITC015G1","venue_identifier":0,"start_time":1715752560,"end_time":1715759940,"cover":"","views":11,"playback_mode":1,"password":"","need_password":0,"sign_up_status":0,"is_collect":0,"created_at":"2024-05-15 13:55:15","publish":1,"speaker":{"uuid":"","nickname":"博为用户"},"classrooms":[]}]},"timestamp":1724069836,"req_id":"3fc298c86120ed17bc52ab2f0d6a7801"}