INFO     utils.log_utils:BaseApi.py:80 发起的请求地址为===========>https://papi.boweiedu.com//backend/user/add-student
INFO     utils.log_utils:BaseApi.py:82 接口的响应信息为<==========={"code":0,"msg":"success","data":{},"timestamp":1723012999,"req_id":"5d7b2faf315fe9179048f21aa5ab5e50"}
INFO     utils.log_utils:BaseApi.py:80 发起的请求地址为===========>https://papi.boweiedu.com//backend/user/list
INFO     utils.log_utils:BaseApi.py:82 接口的响应信息为<==========={"code":0,"msg":"success","data":{"list":[{"id":3,"uuid":"2e03f8e2be5555812e813eb48ea58716","username":"18867386292","status":1,"status_str":"正常","phone":"18867386292","stu_no":"","login_at":"2024-08-02 15:53:38","login_ip":"113.87.3.117","identities":[7],"identitues_name":["学生"],"created_at":"2023-09-25 08:50:09","real_name":"hhv"},{"id":4,"uuid":"c934020e6c3db361c46729898798d355","username":"13113017791","status":1,"status_str":"正常","phone":"13113017791","stu_no":"","login_at":"2024-05-23 15:48:16","login_ip":"119.123.176.232","identities":[5],"identitues_name":["老师"],"created_at":"2023-12-16 22:25:34","real_name":"Louis"},{"id":6,"uuid":"6d5efd93299d4b9418f040b026170615","username":"18086458388","status":1,"status_str":"正常","phone":"18086458388","stu_no":"","login_at":"2024-06-19 09:58:15","login_ip":"","identities":[7],"identitues_name":["学生"],"created_at":"2023-12-18 16:36:42","real_name":"8388"},{"id":164,"uuid":"a1554dd1a4883ef9da5d09838c34e65f","username":"15593686063","status":1,"status_str":"正常","phone":"15593686063","stu_no":"","login_at":"2024-08-01 17:17:44","login_ip":"223.104.27.224","identities":[7],"identitues_name":["学生"],"created_at":"2024-01-13 15:51:23","real_name":"黄莉"},{"id":186,"uuid":"d83a608bfe72c2317f18137fc4051434","username":"18579785832","status":1,"status_str":"正常","phone":"18579785832","stu_no":"","login_at":"","login_ip":"","identities":[7],"identitues_name":["学生"],"created_at":"2024-01-19 22:29:41","real_name":"站站"},{"id":192,"uuid":"28dc6c264bf279a1e42f2e14b42cb5d0","username":"13432782752","status":1,"status_str":"正常","phone":"13432782752","stu_no":"","login_at":"2024-06-11 16:55:09","login_ip":"113.87.227.253","identities":[5],"identitues_name":["老师"],"created_at":"2024-01-24 15:13:02","real_name":"郑老师"},{"id":196,"uuid":"d48c47574698f4e42ca7d5963bb55e16","username":"13929545149","status":1,"status_str":"正常","phone":"13929545149","stu_no":"","login_at":"","login_ip":"","identities":[7],"identitues_name":["学生"],"created_at":"2024-01-24 17:40:58","real_name":"王青海"},{"id":193,"uuid":"79327e75a76573cc010115985ad94de1","username":"ooooooojfjf","status":1,"status_str":"正常","phone":"18665347327","stu_no":"","login_at":"2024-05-24 15:52:28","login_ip":"113.87.227.253","identities":[1,5,8],"identitues_name":["管理员","老师","督导"],"created_at":"2024-01-24 15:18:26","real_name":"张丽娟"},{"id":187,"uuid":"53f34e1ce75c7185e44ce7731eaa0506","username":"18665565511","status":1,"status_str":"正常","phone":"18665565511","stu_no":"12345678901234567890","login_at":"","login_ip":"","identities":[5],"identitues_name":["老师"],"created_at":"2024-01-22 10:01:25","real_name":"张的"},{"id":7,"uuid":"2bea1b91c7a61eae3198b1fd043057dc","username":"13410510045","status":1,"status_str":"正常","phone":"13410510045","stu_no":"","login_at":"2024-08-06 09:40:28","login_ip":"113.87.2.30","identities":[1,5,8],"identitues_name":["管理员","老师","督导"],"created_at":"2023-12-19 09:21:14","real_name":"Sam"}],"pagination":{"size":10,"total":26,"pages":3,"page":1}},"timestamp":1723012999,"req_id":"eed6f8b2315fe9179148f21ad75df44f"}
INFO     utils.log_utils:jsonpath_utils.py:11 通过jsonpath获取到的数据为[3]
INFO     utils.log_utils:jsonpath_utils.py:11 通过jsonpath获取到的数据为[10]
INFO     utils.log_utils:BaseApi.py:80 发起的请求地址为===========>https://papi.boweiedu.com//backend/user/list
INFO     utils.log_utils:BaseApi.py:82 接口的响应信息为<==========={"code":0,"msg":"success","data":{"list":[{"id":533,"uuid":"85d0fbd08bf84478b97199e2fb177f15","username":"15927379152","status":1,"status_str":"正常","phone":"15927379152","stu_no":"","login_at":"2024-05-22 15:22:53","login_ip":"","identities":[8],"identitues_name":["督导"],"created_at":"2024-05-22 15:18:09","real_name":"Ann"},{"id":534,"uuid":"cd5645b168d44f0a9efd2580d8733b0d","username":"13530614795","status":1,"status_str":"正常","phone":"13530614795","stu_no":"","login_at":"2024-05-23 14:07:02","login_ip":"","identities":[7],"identitues_name":["学生"],"created_at":"2024-05-23 14:06:25","real_name":"boweicheng"},{"id":537,"uuid":"34021bc596754db9ae27a2f6a5f34ad9","username":"19120590192","status":1,"status_str":"正常","phone":"19120590192","stu_no":"","login_at":"2024-05-24 14:28:43","login_ip":"","identities":[7],"identitues_name":["学生"],"created_at":"2024-05-24 14:26:52","real_name":"James4"},{"id":538,"uuid":"2c0326b9ade84619bd2f68bc4bb322c1","username":"15830344885","status":1,"status_str":"正常","phone":"15830344885","stu_no":"","login_at":"2024-08-07 13:49:26","login_ip":"","identities":[1],"identitues_name":["管理员"],"created_at":"2024-06-11 16:55:59","real_name":"sam"},{"id":539,"uuid":"b123c9ad91f94da09d8f23a1d697bd62","username":"13483301542","status":1,"status_str":"正常","phone":"13483301542","stu_no":"","login_at":"","login_ip":"","identities":[7],"identitues_name":["学生"],"created_at":"2024-08-07 11:15:31","real_name":"lv"},{"id":546,"uuid":"56c10ce909a44f8a9e1325bdc504f5f1","username":"13486632105","status":1,"status_str":"正常","phone":"13486632105","stu_no":"","login_at":"","login_ip":"","identities":[7],"identitues_name":["学生"],"created_at":"2024-08-07 14:43:19","real_name":"张张"}],"pagination":{"size":10,"total":26,"pages":3,"page":3}},"timestamp":1723012999,"req_id":"1ef6afb6315fe9179248f21af78eb53a"}
INFO     utils.log_utils:jsonpath_utils.py:11 通过jsonpath获取到的数据为[546]
INFO     utils.log_utils:BaseApi.py:80 发起的请求地址为===========>https://papi.boweiedu.com/backend/v2/user/del
INFO     utils.log_utils:BaseApi.py:82 接口的响应信息为<==========={"code":51,"msg":"用户id不能为空","data":[],"timestamp":1723012999,"req_id":"672806ba315fe9179348f21abd897268"}