INFO     utils.log_utils:BaseApi.py:82 发起的请求地址为===========>https://papi.boweiedu.com/backend/resource/list
INFO     utils.log_utils:BaseApi.py:84 接口的响应信息为<==========={"code":0,"msg":"success","data":{"list":[{"convert_status":"success","created_at":"2024-03-15 17:23:13","duration":2168,"ext":"m3u8","ext_type":"video","file":"直播回放0315_180025","first_frame":"","path":"https://vodobs.boweiedu.com/6cbce17evodcq1500022954/957ef45a1397757887029680545/playlist_eof.m3u8","size":575307767,"type":6,"uuid":"17c6a93a21c9de7e51be1476bc28a5b5"},{"convert_status":"success","created_at":"2024-03-15 17:24:12","duration":2176,"ext":"m3u8","ext_type":"video","file":"直播回放0315_180128","first_frame":"","path":"https://vodobs.boweiedu.com/6cbce17evodcq1500022954/c7a2319b1397757887064738732/playlist_eof.m3u8","size":582456616,"type":6,"uuid":"739de8276369b55ed233cc4092a2079c"},{"convert_status":"success","created_at":"2024-04-01 13:42:33","duration":0,"ext":"jpg","ext_type":"image","file":"微信图片_20240401133921","first_frame":"","path":"https://pstatic.boweiedu.com/resource/static/c269b2805b/2024/04/d08joj47dpquuer8ng.jpg","size":93781,"type":0,"uuid":"8597f7958bfa1f630b87871a0d4545ee"},{"convert_status":"success","created_at":"2024-04-01 13:47:19","duration":0,"ext":"jpg","ext_type":"image","file":"640","first_frame":"","path":"https://pstatic.boweiedu.com/resource/static/c269b2805b/2024/04/d08js6rm7umu3t0iej.jpg","size":185141,"type":0,"uuid":"2cc9c2af04ecbec7e731b99704c892f7"},{"convert_status":"success","created_at":"2024-04-01 13:47:39","duration":0,"ext":"jpg","ext_type":"image","file":"微信图片_20240401134519","first_frame":"","path":"https://pstatic.boweiedu.com/resource/static/c269b2805b/2024/04/d08jsfrei8wukclcox.jpg","size":330323,"type":0,"uuid":"177b290e9fd0431d95f417f859b38c70"},{"convert_status":"success","created_at":"2024-04-01 13:48:37","duration":0,"ext":"jpg","ext_type":"image","file":"微信图片_20240401134530","first_frame":"","path":"https://pstatic.boweiedu.com/resource/static/c269b2805b/2024/04/d08jt6nvmls4qck9we.jpg","size":287610,"type":0,"uuid":"74db647ad4808dbbb8772534d2c3ed1a"},{"convert_status":"success","created_at":"2024-04-01 13:48:40","duration":0,"ext":"jpg","ext_type":"image","file":"微信图片_20240401134511","first_frame":"","path":"https://pstatic.boweiedu.com/resource/static/c269b2805b/2024/04/d08jt7qfj4ln2szhrx.jpg","size":368692,"type":0,"uuid":"d88c88d7ab82e9dea0cef44a836750b1"},{"convert_status":"success","created_at":"2024-04-01 13:48:40","duration":0,"ext":"jpg","ext_type":"image","file":"微信图片_20240401134535","first_frame":"","path":"https://pstatic.boweiedu.com/resource/static/c269b2805b/2024/04/d08jt7seqi76fmpz6u.jpg","size":370593,"type":0,"uuid":"41ca350bbe7a42fb5f87a8dff56ae8cb"},{"convert_status":"success","created_at":"2024-04-01 13:48:42","duration":0,"ext":"jpg","ext_type":"image","file":"微信图片_20240401134527","first_frame":"","path":"https://pstatic.boweiedu.com/resource/static/c269b2805b/2024/04/d08jt8rw7b4mij5xxm.jpg","size":334938,"type":0,"uuid":"185fae8d1af92435c4e5af7881707fda"},{"convert_status":"success","created_at":"2024-04-01 13:52:05","duration":0,"ext":"jpg","ext_type":"image","file":"微信图片_20240401133921","first_frame":"","path":"https://pstatic.boweiedu.com/resource/static/c269b2805b/2024/04/d08jvu0w51a5jcr0e3.jpg","size":93781,"type":0,"uuid":"901ce6353e2ce958f7a03daefeee0324"}],"pagination":{"size":10,"total":26,"pages":3,"page":1}},"timestamp":1718097348,"req_id":"8eacc38a6fe8d717601330224345ae95"}