INFO     utils.log_utils:BaseApi.py:80 发起的请求地址为===========>https://papi.boweiedu.com//backend/user/list
INFO     utils.log_utils:BaseApi.py:82 接口的响应信息为<==========={"code":0,"msg":"success","data":{"list":[{"id":533,"uuid":"85d0fbd08bf84478b97199e2fb177f15","username":"15927379152","status":1,"status_str":"正常","phone":"15927379152","stu_no":"","login_at":"2024-05-22 15:22:53","login_ip":"","identities":[8],"identitues_name":["督导"],"created_at":"2024-05-22 15:18:09","real_name":"Ann"},{"id":534,"uuid":"cd5645b168d44f0a9efd2580d8733b0d","username":"13530614795","status":1,"status_str":"正常","phone":"13530614795","stu_no":"","login_at":"2024-05-23 14:07:02","login_ip":"","identities":[7],"identitues_name":["学生"],"created_at":"2024-05-23 14:06:25","real_name":"boweicheng"},{"id":537,"uuid":"34021bc596754db9ae27a2f6a5f34ad9","username":"19120590192","status":1,"status_str":"正常","phone":"19120590192","stu_no":"","login_at":"2024-05-24 14:28:43","login_ip":"","identities":[7],"identitues_name":["学生"],"created_at":"2024-05-24 14:26:52","real_name":"James4"},{"id":538,"uuid":"2c0326b9ade84619bd2f68bc4bb322c1","username":"15830344885","status":1,"status_str":"正常","phone":"15830344885","stu_no":"","login_at":"2024-08-07 13:49:26","login_ip":"","identities":[1],"identitues_name":["管理员"],"created_at":"2024-06-11 16:55:59","real_name":"sam"},{"id":539,"uuid":"b123c9ad91f94da09d8f23a1d697bd62","username":"13483301542","status":1,"status_str":"正常","phone":"13483301542","stu_no":"","login_at":"","login_ip":"","identities":[7],"identitues_name":["学生"],"created_at":"2024-08-07 11:15:31","real_name":"lv"},{"id":543,"uuid":"92d60b0bb1b84d1f8f77aecfa9e7ffca","username":"13486632105","status":1,"status_str":"正常","phone":"13486632105","stu_no":"","login_at":"","login_ip":"","identities":[7],"identitues_name":["学生"],"created_at":"2024-08-07 11:53:22","real_name":"张张"}],"pagination":{"size":10,"total":26,"pages":3,"page":3}},"timestamp":1723010182,"req_id":"632f5ad3a15ce917e646f21a4c02f11e"}